{
  "$schema": "http://json-schema.org/draft-04/schema#",
  "type": "object",
  "properties": {
    "response": {
      "type": "array",
      "items": {
        "type": "object",
        "additionalProperties": false,
        "properties": {
          "id": {
            "type": "integer"
          },
          "error_details": {
            "type": ["null", "string"]
          },
          "containers": {
            "type": "array",
            "items": {
              "type": "string"
            }
          },
          "machine_id": {
            "type": ["null", "integer"]
          },
          "organization_id": {
            "type": ["null", "integer"]
          },
          "state": {
            "type": "string"
          },
          "created_at": {
            "type": "string"
          },
          "updated_at": {
            "type": "string"
          },
          "assessments": {
            "type": "array"
          }
        },
        "required": [
          "id",
          "error_details",
          "containers",
          "machine_id",
          "organization_id",
          "state",
          "created_at",
          "updated_at",
          "assessments"
        ]
      }
    }
  },
  "required": [
    "response"
  ]
}
