{
  "$schema": "http://json-schema.org/draft-04/schema#",
  "type": "object",
  "properties": {
    "response": {
      "type": "array",
      "items": {
        "type": "object",
        "additionalProperties": false,
        "properties": {
          "id": {
            "type": "integer"
          },
          "name": {
            "type": "string"
          },
          "description": {
            "type": "string"
          },
          "requirement_group_id": {
            "type": "integer"
          },
          "provisions": {
            "type": "array"
          }
        },
        "required": [
          "id",
          "name",
          "description",
          "requirement_group_id",
          "provisions"
        ]
      }
    }
  },
  "required": [
    "response"
  ]
}
