{
  "$schema": "http://json-schema.org/draft-04/schema#",
  "type": "object",
  "properties": {
    "response": {
      "type": ["object", "null"],
      "additionalProperties": false,
      "properties": {
        "id": {
          "type": "integer"
        },
        "auth_type": {
          "type": "string"
        },
        "url_blacklist": {
          "type": "string"
        },
        "starting_page_path": {
          "type": "string"
        },
        "service_id": {
          "type": "integer"
        },
        "created_at": {
          "type": "string"
        },
        "updated_at": {
          "type": "string"
        },
        "login_form_username_field_name": {
          "type": ["string", "null"]
        },
        "login_form_password_field_name": {
          "type": ["string", "null"]
        }
      },
      "required": [
        "id",
        "service_id",
        "auth_type",
        "url_blacklist",
        "starting_page_path",
        "created_at",
        "updated_at",
        "login_form_username_field_name",
        "login_form_password_field_name"
      ]
    }
  },
  "required": [
    "response"
  ]
}
